…
## Loading model from cache...

## Running standalone generated quantities after 1 MCMC chain, with 1 thread(s) per chain...
## 
## Chain 1 finished in 0.0 seconds.

## sccomp says: regressing out unwanted factors
## Loading model from cache...

## Running standalone generated quantities after 1 MCMC chain, with 1 thread(s) per chain...
## 
## Chain 1 finished in 0.0 seconds.

## # A tibble: 600 × 5
##    sample cell_group           adjusted_proportion adjusted_counts residuals
##    <chr>  <chr>                              <dbl>           <dbl>     <dbl>
##  1 10x_6K B immature                   0.0554            260.      -0.0625  
##  2 10x_6K B mem                        0.0796            373.       0.0541  
##  3 10x_6K CD4 cm high cytokine         0.000200            0.937   -0.000401
##  4 10x_6K CD4 cm ribosome              0.000643            3.01    -0.00391 
##  5 10x_6K CD4 cm S100A4                0.185             867.       0.00584 
##  6 10x_6K CD4 em high cytokine         0.000316            1.48    -0.00103 
##  7 10x_6K CD4 naive                    0.0354            166.      -0.0505  
##  8 10x_6K CD4 ribosome                 0.120             562.       0.0133  
##  9 10x_6K CD8 em 1                     0.0337            158.       0.00179 
## 10 10x_6K CD8 em 2                     0.000000247         0.00116 -0.000428
## # ℹ 590 more rows
…
